<?xml version="1.0" encoding="utf-8"?>
<svg version="1.1" xmlns="http://www.w3.org/2000/svg" xmlns:xlink="http://www.w3.org/1999/xlink" x="0px" y="0px"
	 viewBox="0 0 22 10" style="enable-background:new 0 0 22 10;" xml:space="preserve">
<style type="text/css">
	.color{fill:#82BE1E;}
</style>
<g id="icon">
	<polygon class="color" points="0,5.89 6,5.89 3,8.89 6,8.89 10,4.89 6,0.89 3,0.89 6,3.89 0,3.89 	"/>
</g>
</svg>
