<?xml version="1.0" encoding="utf-8"?>
<svg version="1.1" xmlns="http://www.w3.org/2000/svg" xmlns:xlink="http://www.w3.org/1999/xlink" x="0px" y="0px"
	 viewBox="0 0 10 10" style="enable-background:new 0 0 10 10;" xml:space="preserve">
<style type="text/css">
	.color{fill:#82BE1E;}
</style>

<g id="icon">
	<polygon class="color" points="0,6 5,6 2,9 5,9 9,5 5,1 2,1 5,4 0,4 	"/>
</g>
</svg>
