<?xml version="1.0" encoding="utf-8"?>
<svg version="1.1" xmlns="http://www.w3.org/2000/svg" xmlns:xlink="http://www.w3.org/1999/xlink" x="0px" y="0px"
	 viewBox="0 0 10 10" style="enable-background:new 0 0 10 10;" xml:space="preserve">
<style type="text/css">
	.color{fill:#82BE1E;}
</style>
<g id="icon">
	<polygon class="color" points="2,8 2,6 4,6 4,8 2,8 0,10 6,10 6,5.5 8,3.5 8,7 10,5 10,0 5,0 3,2 6.5,2 4.5,4 0,4 0,10 	"/>
</g>
</svg>
