<?xml version="1.0" encoding="UTF-8" standalone="no"?>
<svg
   xmlns:dc="http://purl.org/dc/elements/1.1/"
   xmlns:cc="http://creativecommons.org/ns#"
   xmlns:rdf="http://www.w3.org/1999/02/22-rdf-syntax-ns#"
   xmlns:svg="http://www.w3.org/2000/svg"
   xmlns="http://www.w3.org/2000/svg"
   xmlns:sodipodi="http://sodipodi.sourceforge.net/DTD/sodipodi-0.dtd"
   xmlns:inkscape="http://www.inkscape.org/namespaces/inkscape"
   id="Ebene_1"
   data-name="Ebene 1"
   width="7"
   height="10"
   viewBox="0 0 7 10"
   version="1.1"
   inkscape:version="0.91 r13725"
   sodipodi:docname="icon-arrow-right-white.svg">
  <metadata
     id="metadata13">
    <rdf:RDF>
      <cc:Work
         rdf:about="">
        <dc:format>image/svg+xml</dc:format>
        <dc:type
           rdf:resource="http://purl.org/dc/dcmitype/StillImage" />
        <dc:title>icon-arrow-right</dc:title>
      </cc:Work>
    </rdf:RDF>
  </metadata>
  <sodipodi:namedview
     pagecolor="#ffffff"
     bordercolor="#666666"
     borderopacity="1"
     objecttolerance="10"
     gridtolerance="10"
     guidetolerance="10"
     inkscape:pageopacity="0"
     inkscape:pageshadow="2"
     inkscape:window-width="729"
     inkscape:window-height="480"
     id="namedview11"
     showgrid="false"
     inkscape:zoom="23.6"
     inkscape:cx="3.5"
     inkscape:cy="4.9576271"
     inkscape:window-x="0"
     inkscape:window-y="0"
     inkscape:window-maximized="0"
     inkscape:current-layer="Ebene_1" />
  <defs
     id="defs3">
    <style
       id="style5">.cls-1{fill:#1f407a;}</style>
  </defs>
  <title
     id="title7">icon-arrow-right</title>
  <polygon
     class="cls-1"
     points="0 8.6 3.6 5 0 1.4 1.4 0 5 3.6 5 3.6 6.4 5 1.4 10 0 8.6"
     id="polygon9"
     style="fill:#ffffff" />
</svg>
